1    1.0
2    2.0
3    4.0
4    10.0
5    14.0
6    25.0
7    36.0
8    49.0
9    75.0
10    110.0
11    163.0
12    236.0
13    303.0
14    415.0
15    579.0
16    802.0
17    1142.0
18    1628.0
19    2296.0
20    3266.0
21    4677.0
22    6619.0
23    9106.0
24    12524.0
25    17196.0
26    23365.0
27    30977.0
28    40180.0
29    51237.0
30    63420.0
31    76244.0
32    88850.0
33    100448.0
34    111031.0
35    120259.0
36    127450.0
37    133444.0
38    138772.0
39    142526.0
40    145921.0
41    147934.0
42    149951.0
43    151468.0
44    153052.0
45    154157.0
46    154632.0
47    155190.0
48    155363.0
49    156119.0
50    156272.0
51    156210.0
52    156453.0
53    157049.0
54    157594.0
55    157431.0
56    157922.0
57    157681.0
58    157476.0
59    157821.0
60    158014.0
61    158152.0
62    158144.0
63    158257.0
64    158405.0
65    158032.0
66    158418.0
67    158057.0
68    158100.0
69    158145.0
70    158109.0
71    158242.0
72    157817.0
73    158086.0
74    158039.0
75    157907.0
76    157986.0
77    158033.0
78    158491.0
79    158471.0
80    158319.0
81    158440.0
82    158343.0
83    158265.0
84    158214.0
85    158357.0
86    157904.0
87    158143.0
88    158333.0
89    158295.0