1    1.0
2    1.0
3    1.0
4    1.0
5    1.0
6    1.0
7    1.0
8    2.0
9    3.0
10    3.0
11    3.0
12    3.0
13    3.0
14    3.0
15    4.0
16    3.0
17    3.0
18    3.0
19    3.0
20    3.0
21    5.0
22    5.0
23    5.0
24    5.0
25    4.0
26    4.0
27    4.0
28    5.0
29    6.0
30    8.0
31    9.0
32    8.0
33    9.0
34    9.0
35    10.0
36    7.0
37    6.0
38    6.0
39    7.0
40    9.0
41    11.0
42    13.0
43    14.0
44    16.0
45    19.0
46    21.0
47    20.0
48    23.0
49    22.0
50    24.0
51    29.0
52    33.0
53    39.0
54    55.0
55    56.0
56    59.0
57    63.0
58    77.0
59    84.0
60    92.0
61    108.0
62    126.0
63    141.0
64    159.0
65    171.0
66    203.0
67    228.0
68    259.0
69    290.0
70    334.0
71    377.0
72    438.0
73    498.0
74    585.0
75    683.0
76    754.0
77    876.0
78    977.0
79    1115.0
80    1291.0
81    1494.0
82    1712.0
83    2009.0
84    2337.0
85    2631.0
86    3005.0
87    3424.0
88    3819.0
89    4386.0