1    1.0
2    1.0
3    1.0
4    1.0
5    1.0
6    1.0
7    1.0
8    2.0
9    2.0
10    2.0
11    1.0
12    1.0
13    1.0
14    1.0
15    1.0
16    1.0
17    1.0
18    1.0
19    1.0
20    2.0
21    47.0
22    149.0
23    738.0
24    3040.0
25    8523.0
26    16630.0
27    26804.0
28    37029.0
29    46799.0
30    56607.0
31    65110.0
32    72879.0
33    80202.0
34    86219.0
35    92208.0
36    97690.0
37    102653.0
38    107045.0
39    110804.0
40    113964.0
41    117247.0
42    120104.0
43    122920.0
44    125259.0
45    127958.0
46    129908.0
47    131627.0
48    133121.0
49    134493.0
50    135892.0
51    137331.0
52    138517.0
53    139955.0
54    141108.0
55    142209.0
56    142941.0
57    143966.0
58    144496.0
59    145758.0
60    146232.0
61    147002.0
62    147559.0
63    147919.0
64    148749.0
65    149058.0
66    149531.0
67    150117.0
68    150256.0
69    150849.0
70    151373.0
71    151688.0
72    151959.0
73    152074.0
74    152226.0
75    152530.0
76    152745.0
77    153170.0
78    153391.0
79    153670.0
80    153720.0
81    154171.0
82    153924.0
83    154377.0
84    154020.0
85    154214.0
86    154398.0
87    154284.0
88    154600.0
89    155023.0